prio_calc/build/priority_calc.vcd
$date
  Tue Jan 28 15:59:17 2025
$end
$version
  GHDL v0
$end
$timescale
  1 fs
$end
$scope module standard $end
$upscope $end
$scope module std_logic_1164 $end
$upscope $end
$scope module numeric_std $end
$upscope $end
$scope module tb $end
$var reg 1 ! rst $end
$var reg 1 " add_up_input $end
$var reg 1 # add_down_input $end
$var reg 1 $ was_going_up_input $end
$var reg 1 % priority_up_output $end
$scope module priority_calc_instance $end
$var reg 1 & reset $end
$var reg 1 ' add_up $end
$var reg 1 ( add_down $end
$var reg 1 ) was_going_up $end
$var reg 1 * priority_up $end
$var reg 8 + up_count[7:0] $end
$var reg 8 , down_count[7:0] $end
$var reg 1 - cond $end
$scope module up_counter_instance $end
$var reg 1 . reset $end
$var reg 1 / clock $end
$var reg 8 0 count[7:0] $end
$var reg 8 1 count_reg[7:0] $end
$upscope $end
$scope module down_counter_instance $end
$var reg 1 2 reset $end
$var reg 1 3 clock $end
$var reg 8 4 count[7:0] $end
$var reg 8 5 count_reg[7:0] $end
$upscope $end
$upscope $end
$upscope $end
$enddefinitions $end
#0
0!
0"
0#
0$
0%
0&
0'
0(
0)
0*
b00000000 +
b00000000 ,
0-
0.
0/
b00000000 0
b00000000 1
02
03
b00000000 4
b00000000 5
#1000000
1"
1%
1'
1*
b00000001 +
1-
1/
b00000001 0
b00000001 1
#2000000
0"
0'
0/
#3000000
1"
1'
b00000010 +
1/
b00000010 0
b00000010 1
#4000000
0"
1$
0'
1)
0/
#10000000
1#
1(
b00000001 ,
13
b00000001 4
b00000001 5
#12000000
0#
0(
03
#13000000
1#
1(
b00000010 ,
13
b00000010 4
b00000010 5
#15000000
#16000000
0#
0(
03
#17000000
1#
0%
1(
0*
b00000011 ,
0-
13
b00000011 4
b00000011 5
#18000000
0#
0$
0(
0)
03
#20000000
1"
1'
b00000011 +
1/
b00000011 0
b00000011 1
#21000000
0"
0'
0/
